# Meshing.txt
# X	Y
-0.901259	-0.901259
-0.723278	-0.901259
-0.580444	-0.901259
-0.465817	-0.901259
-0.373827	-0.901259
-0.300003	-0.901259
-0.240758	-0.901259
-0.193213	-0.901259
-0.155057	-0.901259
-0.124436	-0.901259
-0.0998624	-0.901259
-0.0801414	-0.901259
-0.064315	-0.901259
-0.051614	-0.901259
-0.0414212	-0.901259
-0.0332413	-0.901259
-0.0266768	-0.901259
-0.0214086	-0.901259
-0.0171808	-0.901259
-0.0137879	-0.901259
-0.0110651	-0.901259
-0.00887993	-0.901259
-0.00712631	-0.901259
-0.00317278	-0.901259
0.0129	-0.913652
0.03015	-0.919645
0.05445	-0.923791
0.08535	-0.926224
0.12235	-0.92708
0.16485	-0.92663
0.2122	-0.925143
0.26375	-0.922935
0.3188	-0.920456
0.37665	-0.918023
0.437	-0.91568
0.49885	-0.913336
0.5608	-0.910993
0.62195	-0.908785
0.6813	-0.906892
0.73795	-0.905315
0.791	-0.904053
0.83955	-0.903107
0.8828	-0.902431
0.92	-0.90198
0.95055	-0.901665
0.97395	-0.90144
0.9898	-0.901304
0.9979	-0.901259
1.00317	-0.901259
1.00713	-0.901259
1.00888	-0.901259
1.01107	-0.901259
1.01379	-0.901259
1.01718	-0.901259
1.02141	-0.901259
1.02668	-0.901259
1.03324	-0.901259
1.04142	-0.901259
1.05161	-0.901259
1.06432	-0.901259
1.08014	-0.901259
1.09986	-0.901259
1.12444	-0.901259
1.15506	-0.901259
1.19321	-0.901259
1.24076	-0.901259
1.3	-0.901259
1.37383	-0.901259
1.46582	-0.901259
1.58044	-0.901259
1.72328	-0.901259
1.90126	-0.901259

-0.901259	-0.723278
-0.723278	-0.723278
-0.580444	-0.723278
-0.465817	-0.723278
-0.373827	-0.723278
-0.300003	-0.723278
-0.240758	-0.723278
-0.193213	-0.723278
-0.155057	-0.723278
-0.124436	-0.723278
-0.0998624	-0.723278
-0.0801414	-0.723278
-0.064315	-0.723278
-0.051614	-0.723278
-0.0414212	-0.723278
-0.0332413	-0.723278
-0.0266768	-0.723278
-0.0214086	-0.723278
-0.0171808	-0.723278
-0.0137879	-0.723278
-0.0110651	-0.723278
-0.00887993	-0.723278
-0.00712631	-0.723278
-0.00317278	-0.723278
0.0129	-0.746973
0.03015	-0.758432
0.05445	-0.76636
0.08535	-0.771012
0.12235	-0.77265
0.16485	-0.771788
0.2122	-0.768944
0.26375	-0.764722
0.3188	-0.759983
0.37665	-0.755331
0.437	-0.75085
0.49885	-0.74637
0.5608	-0.741889
0.62195	-0.737667
0.6813	-0.734048
0.73795	-0.731032
0.791	-0.72862
0.83955	-0.72681
0.8828	-0.725518
0.92	-0.724656
0.95055	-0.724053
0.97395	-0.723622
0.9898	-0.723364
0.9979	-0.723278
1.00317	-0.723278
1.00713	-0.723278
1.00888	-0.723278
1.01107	-0.723278
1.01379	-0.723278
1.01718	-0.723278
1.02141	-0.723278
1.02668	-0.723278
1.03324	-0.723278
1.04142	-0.723278
1.05161	-0.723278
1.06432	-0.723278
1.08014	-0.723278
1.09986	-0.723278
1.12444	-0.723278
1.15506	-0.723278
1.19321	-0.723278
1.24076	-0.723278
1.3	-0.723278
1.37383	-0.723278
1.46582	-0.723278
1.58044	-0.723278
1.72328	-0.723278
1.90126	-0.723278

-0.901259	-0.580444
-0.723278	-0.580444
-0.580444	-0.580444
-0.465817	-0.580444
-0.373827	-0.580444
-0.300003	-0.580444
-0.240758	-0.580444
-0.193213	-0.580444
-0.155057	-0.580444
-0.124436	-0.580444
-0.0998624	-0.580444
-0.0801414	-0.580444
-0.064315	-0.580444
-0.051614	-0.580444
-0.0414212	-0.580444
-0.0332413	-0.580444
-0.0266768	-0.580444
-0.0214086	-0.580444
-0.0171808	-0.580444
-0.0137879	-0.580444
-0.0110651	-0.580444
-0.00887993	-0.580444
-0.00712631	-0.580444
-0.00317278	-0.580444
0.0129	-0.602175
0.03015	-0.612685
0.05445	-0.619955
0.08535	-0.624222
0.12235	-0.625724
0.16485	-0.624933
0.2122	-0.622326
0.26375	-0.618454
0.3188	-0.614107
0.37665	-0.60984
0.437	-0.605731
0.49885	-0.601622
0.5608	-0.597513
0.62195	-0.593641
0.6813	-0.590322
0.73795	-0.587556
0.791	-0.585343
0.83955	-0.583684
0.8828	-0.582498
0.92	-0.581708
0.95055	-0.581155
0.97395	-0.58076
0.9898	-0.580523
0.9979	-0.580444
1.00317	-0.580444
1.00713	-0.580444
1.00888	-0.580444
1.01107	-0.580444
1.01379	-0.580444
1.01718	-0.580444
1.02141	-0.580444
1.02668	-0.580444
1.03324	-0.580444
1.04142	-0.580444
1.05161	-0.580444
1.06432	-0.580444
1.08014	-0.580444
1.09986	-0.580444
1.12444	-0.580444
1.15506	-0.580444
1.19321	-0.580444
1.24076	-0.580444
1.3	-0.580444
1.37383	-0.580444
1.46582	-0.580444
1.58044	-0.580444
1.72328	-0.580444
1.90126	-0.580444

-0.901259	-0.465817
-0.723278	-0.465817
-0.580444	-0.465817
-0.465817	-0.465817
-0.373827	-0.465817
-0.300003	-0.465817
-0.240758	-0.465817
-0.193213	-0.465817
-0.155057	-0.465817
-0.124436	-0.465817
-0.0998624	-0.465817
-0.0801414	-0.465817
-0.064315	-0.465817
-0.051614	-0.465817
-0.0414212	-0.465817
-0.0332413	-0.465817
-0.0266768	-0.465817
-0.0214086	-0.465817
-0.0171808	-0.465817
-0.0137879	-0.465817
-0.0110651	-0.465817
-0.00887993	-0.465817
-0.00712631	-0.465817
-0.00317278	-0.465817
0.0129	-0.485972
0.03015	-0.49572
0.05445	-0.502463
0.08535	-0.50642
0.12235	-0.507813
0.16485	-0.50708
0.2122	-0.504661
0.26375	-0.50107
0.3188	-0.497039
0.37665	-0.493081
0.437	-0.48927
0.49885	-0.485459
0.5608	-0.481648
0.62195	-0.478057
0.6813	-0.474978
0.73795	-0.472413
0.791	-0.470361
0.83955	-0.468822
0.8828	-0.467723
0.92	-0.46699
0.95055	-0.466477
0.97395	-0.46611
0.9898	-0.46589
0.9979	-0.465817
1.00317	-0.465817
1.00713	-0.465817
1.00888	-0.465817
1.01107	-0.465817
1.01379	-0.465817
1.01718	-0.465817
1.02141	-0.465817
1.02668	-0.465817
1.03324	-0.465817
1.04142	-0.465817
1.05161	-0.465817
1.06432	-0.465817
1.08014	-0.465817
1.09986	-0.465817
1.12444	-0.465817
1.15506	-0.465817
1.19321	-0.465817
1.24076	-0.465817
1.3	-0.465817
1.37383	-0.465817
1.46582	-0.465817
1.58044	-0.465817
1.72328	-0.465817
1.90126	-0.465817

-0.901259	-0.373827
-0.723278	-0.373827
-0.580444	-0.373827
-0.465817	-0.373827
-0.373827	-0.373827
-0.300003	-0.373827
-0.240758	-0.373827
-0.193213	-0.373827
-0.155057	-0.373827
-0.124436	-0.373827
-0.0998624	-0.373827
-0.0801414	-0.373827
-0.064315	-0.373827
-0.051614	-0.373827
-0.0414212	-0.373827
-0.0332413	-0.373827
-0.0266768	-0.373827
-0.0214086	-0.373827
-0.0171808	-0.373827
-0.0137879	-0.373827
-0.0110651	-0.373827
-0.00887993	-0.373827
-0.00712631	-0.373827
-0.00317278	-0.373827
0.0129	-0.392717
0.03015	-0.401853
0.05445	-0.408173
0.08535	-0.411882
0.12235	-0.413187
0.16485	-0.4125
0.2122	-0.410233
0.26375	-0.406868
0.3188	-0.40309
0.37665	-0.39938
0.437	-0.395808
0.49885	-0.392236
0.5608	-0.388664
0.62195	-0.385298
0.6813	-0.382413
0.73795	-0.380009
0.791	-0.378086
0.83955	-0.376643
0.8828	-0.375613
0.92	-0.374926
0.95055	-0.374445
0.97395	-0.374102
0.9898	-0.373896
0.9979	-0.373827
1.00317	-0.373827
1.00713	-0.373827
1.00888	-0.373827
1.01107	-0.373827
1.01379	-0.373827
1.01718	-0.373827
1.02141	-0.373827
1.02668	-0.373827
1.03324	-0.373827
1.04142	-0.373827
1.05161	-0.373827
1.06432	-0.373827
1.08014	-0.373827
1.09986	-0.373827
1.12444	-0.373827
1.15506	-0.373827
1.19321	-0.373827
1.24076	-0.373827
1.3	-0.373827
1.37383	-0.373827
1.46582	-0.373827
1.58044	-0.373827
1.72328	-0.373827
1.90126	-0.373827

-0.901259	-0.300003
-0.723278	-0.300003
-0.580444	-0.300003
-0.465817	-0.300003
-0.373827	-0.300003
-0.300003	-0.300003
-0.240758	-0.300003
-0.193213	-0.300003
-0.155057	-0.300003
-0.124436	-0.300003
-0.0998624	-0.300003
-0.0801414	-0.300003
-0.064315	-0.300003
-0.051614	-0.300003
-0.0414212	-0.300003
-0.0332413	-0.300003
-0.0266768	-0.300003
-0.0214086	-0.300003
-0.0171808	-0.300003
-0.0137879	-0.300003
-0.0110651	-0.300003
-0.00887993	-0.300003
-0.00712631	-0.300003
-0.00317278	-0.300003
0.0129	-0.317878
0.03015	-0.326523
0.05445	-0.332503
0.08535	-0.336013
0.12235	-0.337248
0.16485	-0.336598
0.2122	-0.334453
0.26375	-0.331268
0.3188	-0.327693
0.37665	-0.324183
0.437	-0.320803
0.49885	-0.317423
0.5608	-0.314043
0.62195	-0.310858
0.6813	-0.308128
0.73795	-0.305853
0.791	-0.304033
0.83955	-0.302668
0.8828	-0.301693
0.92	-0.301043
0.95055	-0.300588
0.97395	-0.300263
0.9898	-0.300068
0.9979	-0.300003
1.00317	-0.300003
1.00713	-0.300003
1.00888	-0.300003
1.01107	-0.300003
1.01379	-0.300003
1.01718	-0.300003
1.02141	-0.300003
1.02668	-0.300003
1.03324	-0.300003
1.04142	-0.300003
1.05161	-0.300003
1.06432	-0.300003
1.08014	-0.300003
1.09986	-0.300003
1.12444	-0.300003
1.15506	-0.300003
1.19321	-0.300003
1.24076	-0.300003
1.3	-0.300003
1.37383	-0.300003
1.46582	-0.300003
1.58044	-0.300003
1.72328	-0.300003
1.90126	-0.300003

-0.901259	-0.240758
-0.723278	-0.240758
-0.580444	-0.240758
-0.465817	-0.240758
-0.373827	-0.240758
-0.300003	-0.240758
-0.240758	-0.240758
-0.193213	-0.240758
-0.155057	-0.240758
-0.124436	-0.240758
-0.0998624	-0.240758
-0.0801414	-0.240758
-0.064315	-0.240758
-0.051614	-0.240758
-0.0414212	-0.240758
-0.0332413	-0.240758
-0.0266768	-0.240758
-0.0214086	-0.240758
-0.0171808	-0.240758
-0.0137879	-0.240758
-0.0110651	-0.240758
-0.00887993	-0.240758
-0.00712631	-0.240758
-0.00317278	-0.240758
0.0129	-0.257819
0.03015	-0.26607
0.05445	-0.271777
0.08535	-0.275127
0.12235	-0.276306
0.16485	-0.275686
0.2122	-0.273638
0.26375	-0.270598
0.3188	-0.267186
0.37665	-0.263836
0.437	-0.26061
0.49885	-0.257384
0.5608	-0.254158
0.62195	-0.251119
0.6813	-0.248513
0.73795	-0.246342
0.791	-0.244605
0.83955	-0.243302
0.8828	-0.242371
0.92	-0.241751
0.95055	-0.241317
0.97395	-0.241006
0.9898	-0.24082
0.9979	-0.240758
1.00317	-0.240758
1.00713	-0.240758
1.00888	-0.240758
1.01107	-0.240758
1.01379	-0.240758
1.01718	-0.240758
1.02141	-0.240758
1.02668	-0.240758
1.03324	-0.240758
1.04142	-0.240758
1.05161	-0.240758
1.06432	-0.240758
1.08014	-0.240758
1.09986	-0.240758
1.12444	-0.240758
1.15506	-0.240758
1.19321	-0.240758
1.24076	-0.240758
1.3	-0.240758
1.37383	-0.240758
1.46582	-0.240758
1.58044	-0.240758
1.72328	-0.240758
1.90126	-0.240758

-0.901259	-0.193213
-0.723278	-0.193213
-0.580444	-0.193213
-0.465817	-0.193213
-0.373827	-0.193213
-0.300003	-0.193213
-0.240758	-0.193213
-0.193213	-0.193213
-0.155057	-0.193213
-0.124436	-0.193213
-0.0998624	-0.193213
-0.0801414	-0.193213
-0.064315	-0.193213
-0.051614	-0.193213
-0.0414212	-0.193213
-0.0332413	-0.193213
-0.0266768	-0.193213
-0.0214086	-0.193213
-0.0171808	-0.193213
-0.0137879	-0.193213
-0.0110651	-0.193213
-0.00887993	-0.193213
-0.00712631	-0.193213
-0.00317278	-0.193213
0.0129	-0.20962
0.03015	-0.217555
0.05445	-0.223043
0.08535	-0.226265
0.12235	-0.227399
0.16485	-0.226802
0.2122	-0.224833
0.26375	-0.22191
0.3188	-0.218628
0.37665	-0.215407
0.437	-0.212304
0.49885	-0.209202
0.5608	-0.2061
0.62195	-0.203176
0.6813	-0.200671
0.73795	-0.198582
0.791	-0.196912
0.83955	-0.195659
0.8828	-0.194764
0.92	-0.194168
0.95055	-0.19375
0.97395	-0.193452
0.9898	-0.193273
0.9979	-0.193213
1.00317	-0.193213
1.00713	-0.193213
1.00888	-0.193213
1.01107	-0.193213
1.01379	-0.193213
1.01718	-0.193213
1.02141	-0.193213
1.02668	-0.193213
1.03324	-0.193213
1.04142	-0.193213
1.05161	-0.193213
1.06432	-0.193213
1.08014	-0.193213
1.09986	-0.193213
1.12444	-0.193213
1.15506	-0.193213
1.19321	-0.193213
1.24076	-0.193213
1.3	-0.193213
1.37383	-0.193213
1.46582	-0.193213
1.58044	-0.193213
1.72328	-0.193213
1.90126	-0.193213

-0.901259	-0.155057
-0.723278	-0.155057
-0.580444	-0.155057
-0.465817	-0.155057
-0.373827	-0.155057
-0.300003	-0.155057
-0.240758	-0.155057
-0.193213	-0.155057
-0.155057	-0.155057
-0.124436	-0.155057
-0.0998624	-0.155057
-0.0801414	-0.155057
-0.064315	-0.155057
-0.051614	-0.155057
-0.0414212	-0.155057
-0.0332413	-0.155057
-0.0266768	-0.155057
-0.0214086	-0.155057
-0.0171808	-0.155057
-0.0137879	-0.155057
-0.0110651	-0.155057
-0.00887993	-0.155057
-0.00712631	-0.155057
-0.00317278	-0.155057
0.0129	-0.170939
0.03015	-0.17862
0.05445	-0.183933
0.08535	-0.187052
0.12235	-0.188149
0.16485	-0.187572
0.2122	-0.185666
0.26375	-0.182836
0.3188	-0.17966
0.37665	-0.176541
0.437	-0.173538
0.49885	-0.170535
0.5608	-0.167532
0.62195	-0.164702
0.6813	-0.162276
0.73795	-0.160255
0.791	-0.158638
0.83955	-0.157425
0.8828	-0.156559
0.92	-0.155981
0.95055	-0.155577
0.97395	-0.155288
0.9898	-0.155115
0.9979	-0.155057
1.00317	-0.155057
1.00713	-0.155057
1.00888	-0.155057
1.01107	-0.155057
1.01379	-0.155057
1.01718	-0.155057
1.02141	-0.155057
1.02668	-0.155057
1.03324	-0.155057
1.04142	-0.155057
1.05161	-0.155057
1.06432	-0.155057
1.08014	-0.155057
1.09986	-0.155057
1.12444	-0.155057
1.15506	-0.155057
1.19321	-0.155057
1.24076	-0.155057
1.3	-0.155057
1.37383	-0.155057
1.46582	-0.155057
1.58044	-0.155057
1.72328	-0.155057
1.90126	-0.155057

-0.901259	-0.124436
-0.723278	-0.124436
-0.580444	-0.124436
-0.465817	-0.124436
-0.373827	-0.124436
-0.300003	-0.124436
-0.240758	-0.124436
-0.193213	-0.124436
-0.155057	-0.124436
-0.124436	-0.124436
-0.0998624	-0.124436
-0.0801414	-0.124436
-0.064315	-0.124436
-0.051614	-0.124436
-0.0414212	-0.124436
-0.0332413	-0.124436
-0.0266768	-0.124436
-0.0214086	-0.124436
-0.0171808	-0.124436
-0.0137879	-0.124436
-0.0110651	-0.124436
-0.00887993	-0.124436
-0.00712631	-0.124436
-0.00317278	-0.124436
0.0129	-0.139897
0.03015	-0.147375
0.05445	-0.152547
0.08535	-0.155583
0.12235	-0.156651
0.16485	-0.156089
0.2122	-0.154234
0.26375	-0.151479
0.3188	-0.148387
0.37665	-0.145351
0.437	-0.142427
0.49885	-0.139504
0.5608	-0.13658
0.62195	-0.133825
0.6813	-0.131464
0.73795	-0.129496
0.791	-0.127922
0.83955	-0.126741
0.8828	-0.125898
0.92	-0.125336
0.95055	-0.124942
0.97395	-0.124661
0.9898	-0.124492
0.9979	-0.124436
1.00317	-0.124436
1.00713	-0.124436
1.00888	-0.124436
1.01107	-0.124436
1.01379	-0.124436
1.01718	-0.124436
1.02141	-0.124436
1.02668	-0.124436
1.03324	-0.124436
1.04142	-0.124436
1.05161	-0.124436
1.06432	-0.124436
1.08014	-0.124436
1.09986	-0.124436
1.12444	-0.124436
1.15506	-0.124436
1.19321	-0.124436
1.24076	-0.124436
1.3	-0.124436
1.37383	-0.124436
1.46582	-0.124436
1.58044	-0.124436
1.72328	-0.124436
1.90126	-0.124436

-0.901259	-0.0998624
-0.723278	-0.0998624
-0.580444	-0.0998624
-0.465817	-0.0998624
-0.373827	-0.0998624
-0.300003	-0.0998624
-0.240758	-0.0998624
-0.193213	-0.0998624
-0.155057	-0.0998624
-0.124436	-0.0998624
-0.0998624	-0.0998624
-0.0801414	-0.0998624
-0.064315	-0.0998624
-0.051614	-0.0998624
-0.0414212	-0.0998624
-0.0332413	-0.0998624
-0.0266768	-0.0998624
-0.0214086	-0.0998624
-0.0171808	-0.0998624
-0.0137879	-0.0998624
-0.0110651	-0.0998624
-0.00887993	-0.0998624
-0.00712631	-0.0998624
-0.00317278	-0.0998624
0.0129	-0.114985
0.03015	-0.1223
0.05445	-0.127359
0.08535	-0.130329
0.12235	-0.131373
0.16485	-0.130824
0.2122	-0.129009
0.26375	-0.126314
0.3188	-0.123289
0.37665	-0.12032
0.437	-0.11746
0.49885	-0.114601
0.5608	-0.111741
0.62195	-0.109046
0.6813	-0.106737
0.73795	-0.104812
0.791	-0.103272
0.83955	-0.102117
0.8828	-0.101292
0.92	-0.100742
0.95055	-0.100357
0.97395	-0.100082
0.9898	-0.0999174
0.9979	-0.0998624
1.00317	-0.0998624
1.00713	-0.0998624
1.00888	-0.0998624
1.01107	-0.0998624
1.01379	-0.0998624
1.01718	-0.0998624
1.02141	-0.0998624
1.02668	-0.0998624
1.03324	-0.0998624
1.04142	-0.0998624
1.05161	-0.0998624
1.06432	-0.0998624
1.08014	-0.0998624
1.09986	-0.0998624
1.12444	-0.0998624
1.15506	-0.0998624
1.19321	-0.0998624
1.24076	-0.0998624
1.3	-0.0998624
1.37383	-0.0998624
1.46582	-0.0998624
1.58044	-0.0998624
1.72328	-0.0998624
1.90126	-0.0998624

-0.901259	-0.0801414
-0.723278	-0.0801414
-0.580444	-0.0801414
-0.465817	-0.0801414
-0.373827	-0.0801414
-0.300003	-0.0801414
-0.240758	-0.0801414
-0.193213	-0.0801414
-0.155057	-0.0801414
-0.124436	-0.0801414
-0.0998624	-0.0801414
-0.0801414	-0.0801414
-0.064315	-0.0801414
-0.051614	-0.0801414
-0.0414212	-0.0801414
-0.0332413	-0.0801414
-0.0266768	-0.0801414
-0.0214086	-0.0801414
-0.0171808	-0.0801414
-0.0137879	-0.0801414
-0.0110651	-0.0801414
-0.00887993	-0.0801414
-0.00712631	-0.0801414
-0.00317278	-0.0801414
0.0129	-0.0949934
0.03015	-0.102176
0.05445	-0.107145
0.08535	-0.110061
0.12235	-0.111087
0.16485	-0.110547
0.2122	-0.108765
0.26375	-0.106119
0.3188	-0.103148
0.37665	-0.100232
0.437	-0.0974237
0.49885	-0.0946153
0.5608	-0.091807
0.62195	-0.0891606
0.6813	-0.0868923
0.73795	-0.0850021
0.791	-0.0834899
0.83955	-0.0823557
0.8828	-0.0815456
0.92	-0.0810056
0.95055	-0.0806275
0.97395	-0.0803575
0.9898	-0.0801955
0.9979	-0.0801414
1.00317	-0.0801414
1.00713	-0.0801414
1.00888	-0.0801414
1.01107	-0.0801414
1.01379	-0.0801414
1.01718	-0.0801414
1.02141	-0.0801414
1.02668	-0.0801414
1.03324	-0.0801414
1.04142	-0.0801414
1.05161	-0.0801414
1.06432	-0.0801414
1.08014	-0.0801414
1.09986	-0.0801414
1.12444	-0.0801414
1.15506	-0.0801414
1.19321	-0.0801414
1.24076	-0.0801414
1.3	-0.0801414
1.37383	-0.0801414
1.46582	-0.0801414
1.58044	-0.0801414
1.72328	-0.0801414
1.90126	-0.0801414

-0.901259	-0.064315
-0.723278	-0.064315
-0.580444	-0.064315
-0.465817	-0.064315
-0.373827	-0.064315
-0.300003	-0.064315
-0.240758	-0.064315
-0.193213	-0.064315
-0.155057	-0.064315
-0.124436	-0.064315
-0.0998624	-0.064315
-0.0801414	-0.064315
-0.064315	-0.064315
-0.051614	-0.064315
-0.0414212	-0.064315
-0.0332413	-0.064315
-0.0266768	-0.064315
-0.0214086	-0.064315
-0.0171808	-0.064315
-0.0137879	-0.064315
-0.0110651	-0.064315
-0.00887993	-0.064315
-0.00712631	-0.064315
-0.00317278	-0.064315
0.0129	-0.0789493
0.03015	-0.086027
0.05445	-0.0909229
0.08535	-0.0937965
0.12235	-0.0948076
0.16485	-0.0942755
0.2122	-0.0925194
0.26375	-0.0899118
0.3188	-0.0869849
0.37665	-0.0841113
0.437	-0.0813441
0.49885	-0.0785768
0.5608	-0.0758096
0.62195	-0.073202
0.6813	-0.070967
0.73795	-0.0691044
0.791	-0.0676144
0.83955	-0.0664969
0.8828	-0.0656986
0.92	-0.0651665
0.95055	-0.064794
0.97395	-0.0645279
0.9898	-0.0643682
0.9979	-0.064315
1.00317	-0.064315
1.00713	-0.064315
1.00888	-0.064315
1.01107	-0.064315
1.01379	-0.064315
1.01718	-0.064315
1.02141	-0.064315
1.02668	-0.064315
1.03324	-0.064315
1.04142	-0.064315
1.05161	-0.064315
1.06432	-0.064315
1.08014	-0.064315
1.09986	-0.064315
1.12444	-0.064315
1.15506	-0.064315
1.19321	-0.064315
1.24076	-0.064315
1.3	-0.064315
1.37383	-0.064315
1.46582	-0.064315
1.58044	-0.064315
1.72328	-0.064315
1.90126	-0.064315

-0.901259	-0.051614
-0.723278	-0.051614
-0.580444	-0.051614
-0.465817	-0.051614
-0.373827	-0.051614
-0.300003	-0.051614
-0.240758	-0.051614
-0.193213	-0.051614
-0.155057	-0.051614
-0.124436	-0.051614
-0.0998624	-0.051614
-0.0801414	-0.051614
-0.064315	-0.051614
-0.051614	-0.051614
-0.0414212	-0.051614
-0.0332413	-0.051614
-0.0266768	-0.051614
-0.0214086	-0.051614
-0.0171808	-0.051614
-0.0137879	-0.051614
-0.0110651	-0.051614
-0.00887993	-0.051614
-0.00712631	-0.051614
-0.00317278	-0.051614
0.0129	-0.0660737
0.03015	-0.0730669
0.05445	-0.0779044
0.08535	-0.0807437
0.12235	-0.0817427
0.16485	-0.0812169
0.2122	-0.0794818
0.26375	-0.0769053
0.3188	-0.0740134
0.37665	-0.071174
0.437	-0.0684398
0.49885	-0.0657056
0.5608	-0.0629714
0.62195	-0.060395
0.6813	-0.0581866
0.73795	-0.0563463
0.791	-0.054874
0.83955	-0.0537698
0.8828	-0.0529811
0.92	-0.0524553
0.95055	-0.0520872
0.97395	-0.0518243
0.9898	-0.0516666
0.9979	-0.051614
1.00317	-0.051614
1.00713	-0.051614
1.00888	-0.051614
1.01107	-0.051614
1.01379	-0.051614
1.01718	-0.051614
1.02141	-0.051614
1.02668	-0.051614
1.03324	-0.051614
1.04142	-0.051614
1.05161	-0.051614
1.06432	-0.051614
1.08014	-0.051614
1.09986	-0.051614
1.12444	-0.051614
1.15506	-0.051614
1.19321	-0.051614
1.24076	-0.051614
1.3	-0.051614
1.37383	-0.051614
1.46582	-0.051614
1.58044	-0.051614
1.72328	-0.051614
1.90126	-0.051614

-0.901259	-0.0414212
-0.723278	-0.0414212
-0.580444	-0.0414212
-0.465817	-0.0414212
-0.373827	-0.0414212
-0.300003	-0.0414212
-0.240758	-0.0414212
-0.193213	-0.0414212
-0.155057	-0.0414212
-0.124436	-0.0414212
-0.0998624	-0.0414212
-0.0801414	-0.0414212
-0.064315	-0.0414212
-0.051614	-0.0414212
-0.0414212	-0.0414212
-0.0332413	-0.0414212
-0.0266768	-0.0414212
-0.0214086	-0.0414212
-0.0171808	-0.0414212
-0.0137879	-0.0414212
-0.0110651	-0.0414212
-0.00887993	-0.0414212
-0.00712631	-0.0414212
-0.00317278	-0.0414212
0.0129	-0.0557408
0.03015	-0.0626662
0.05445	-0.0674567
0.08535	-0.0702686
0.12235	-0.0712579
0.16485	-0.0707372
0.2122	-0.0690189
0.26375	-0.0664674
0.3188	-0.0636035
0.37665	-0.0607916
0.437	-0.058084
0.49885	-0.0553763
0.5608	-0.0526686
0.62195	-0.0501171
0.6813	-0.0479301
0.73795	-0.0461076
0.791	-0.0446496
0.83955	-0.0435561
0.8828	-0.0427751
0.92	-0.0422543
0.95055	-0.0418899
0.97395	-0.0416295
0.9898	-0.0414733
0.9979	-0.0414212
1.00317	-0.0414212
1.00713	-0.0414212
1.00888	-0.0414212
1.01107	-0.0414212
1.01379	-0.0414212
1.01718	-0.0414212
1.02141	-0.0414212
1.02668	-0.0414212
1.03324	-0.0414212
1.04142	-0.0414212
1.05161	-0.0414212
1.06432	-0.0414212
1.08014	-0.0414212
1.09986	-0.0414212
1.12444	-0.0414212
1.15506	-0.0414212
1.19321	-0.0414212
1.24076	-0.0414212
1.3	-0.0414212
1.37383	-0.0414212
1.46582	-0.0414212
1.58044	-0.0414212
1.72328	-0.0414212
1.90126	-0.0414212

-0.901259	-0.0332413
-0.723278	-0.0332413
-0.580444	-0.0332413
-0.465817	-0.0332413
-0.373827	-0.0332413
-0.300003	-0.0332413
-0.240758	-0.0332413
-0.193213	-0.0332413
-0.155057	-0.0332413
-0.124436	-0.0332413
-0.0998624	-0.0332413
-0.0801414	-0.0332413
-0.064315	-0.0332413
-0.051614	-0.0332413
-0.0414212	-0.0332413
-0.0332413	-0.0332413
-0.0266768	-0.0332413
-0.0214086	-0.0332413
-0.0171808	-0.0332413
-0.0137879	-0.0332413
-0.0110651	-0.0332413
-0.00887993	-0.0332413
-0.00712631	-0.0332413
-0.00317278	-0.0332413
0.0129	-0.0474484
0.03015	-0.0543194
0.05445	-0.0590723
0.08535	-0.0618621
0.12235	-0.0628437
0.16485	-0.062327
0.2122	-0.0606222
0.26375	-0.0580908
0.3188	-0.0552493
0.37665	-0.0524596
0.437	-0.0497732
0.49885	-0.0470867
0.5608	-0.0444003
0.62195	-0.0418689
0.6813	-0.0396991
0.73795	-0.0378909
0.791	-0.0364443
0.83955	-0.0353594
0.8828	-0.0345845
0.92	-0.0340679
0.95055	-0.0337063
0.97395	-0.0334479
0.9898	-0.033293
0.9979	-0.0332413
1.00317	-0.0332413
1.00713	-0.0332413
1.00888	-0.0332413
1.01107	-0.0332413
1.01379	-0.0332413
1.01718	-0.0332413
1.02141	-0.0332413
1.02668	-0.0332413
1.03324	-0.0332413
1.04142	-0.0332413
1.05161	-0.0332413
1.06432	-0.0332413
1.08014	-0.0332413
1.09986	-0.0332413
1.12444	-0.0332413
1.15506	-0.0332413
1.19321	-0.0332413
1.24076	-0.0332413
1.3	-0.0332413
1.37383	-0.0332413
1.46582	-0.0332413
1.58044	-0.0332413
1.72328	-0.0332413
1.90126	-0.0332413

-0.901259	-0.0266768
-0.723278	-0.0266768
-0.580444	-0.0266768
-0.465817	-0.0266768
-0.373827	-0.0266768
-0.300003	-0.0266768
-0.240758	-0.0266768
-0.193213	-0.0266768
-0.155057	-0.0266768
-0.124436	-0.0266768
-0.0998624	-0.0266768
-0.0801414	-0.0266768
-0.064315	-0.0266768
-0.051614	-0.0266768
-0.0414212	-0.0266768
-0.0332413	-0.0266768
-0.0266768	-0.0266768
-0.0214086	-0.0266768
-0.0171808	-0.0266768
-0.0137879	-0.0266768
-0.0110651	-0.0266768
-0.00887993	-0.0266768
-0.00712631	-0.0266768
-0.00317278	-0.0266768
0.0129	-0.0407936
0.03015	-0.047621
0.05445	-0.0523437
0.08535	-0.0551157
0.12235	-0.0560911
0.16485	-0.0555777
0.2122	-0.0538837
0.26375	-0.0513683
0.3188	-0.048545
0.37665	-0.045773
0.437	-0.0431036
0.49885	-0.0404342
0.5608	-0.0377649
0.62195	-0.0352495
0.6813	-0.0330935
0.73795	-0.0312968
0.791	-0.0298595
0.83955	-0.0287815
0.8828	-0.0280114
0.92	-0.0274981
0.95055	-0.0271388
0.97395	-0.0268821
0.9898	-0.0267281
0.9979	-0.0266768
1.00317	-0.0266768
1.00713	-0.0266768
1.00888	-0.0266768
1.01107	-0.0266768
1.01379	-0.0266768
1.01718	-0.0266768
1.02141	-0.0266768
1.02668	-0.0266768
1.03324	-0.0266768
1.04142	-0.0266768
1.05161	-0.0266768
1.06432	-0.0266768
1.08014	-0.0266768
1.09986	-0.0266768
1.12444	-0.0266768
1.15506	-0.0266768
1.19321	-0.0266768
1.24076	-0.0266768
1.3	-0.0266768
1.37383	-0.0266768
1.46582	-0.0266768
1.58044	-0.0266768
1.72328	-0.0266768
1.90126	-0.0266768

-0.901259	-0.0214086
-0.723278	-0.0214086
-0.580444	-0.0214086
-0.465817	-0.0214086
-0.373827	-0.0214086
-0.300003	-0.0214086
-0.240758	-0.0214086
-0.193213	-0.0214086
-0.155057	-0.0214086
-0.124436	-0.0214086
-0.0998624	-0.0214086
-0.0801414	-0.0214086
-0.064315	-0.0214086
-0.051614	-0.0214086
-0.0414212	-0.0214086
-0.0332413	-0.0214086
-0.0266768	-0.0214086
-0.0214086	-0.0214086
-0.0171808	-0.0214086
-0.0137879	-0.0214086
-0.0110651	-0.0214086
-0.00887993	-0.0214086
-0.00712631	-0.0214086
-0.00317278	-0.0214086
0.0129	-0.035453
0.03015	-0.0422453
0.05445	-0.0469438
0.08535	-0.0497016
0.12235	-0.050672
0.16485	-0.0501613
0.2122	-0.0484759
0.26375	-0.0459735
0.3188	-0.0431646
0.37665	-0.0404068
0.437	-0.0377511
0.49885	-0.0350955
0.5608	-0.0324398
0.62195	-0.0299374
0.6813	-0.0277924
0.73795	-0.0260049
0.791	-0.024575
0.83955	-0.0235025
0.8828	-0.0227364
0.92	-0.0222257
0.95055	-0.0218682
0.97395	-0.0216129
0.9898	-0.0214597
0.9979	-0.0214086
1.00317	-0.0214086
1.00713	-0.0214086
1.00888	-0.0214086
1.01107	-0.0214086
1.01379	-0.0214086
1.01718	-0.0214086
1.02141	-0.0214086
1.02668	-0.0214086
1.03324	-0.0214086
1.04142	-0.0214086
1.05161	-0.0214086
1.06432	-0.0214086
1.08014	-0.0214086
1.09986	-0.0214086
1.12444	-0.0214086
1.15506	-0.0214086
1.19321	-0.0214086
1.24076	-0.0214086
1.3	-0.0214086
1.37383	-0.0214086
1.46582	-0.0214086
1.58044	-0.0214086
1.72328	-0.0214086
1.90126	-0.0214086

-0.901259	-0.0171808
-0.723278	-0.0171808
-0.580444	-0.0171808
-0.465817	-0.0171808
-0.373827	-0.0171808
-0.300003	-0.0171808
-0.240758	-0.0171808
-0.193213	-0.0171808
-0.155057	-0.0171808
-0.124436	-0.0171808
-0.0998624	-0.0171808
-0.0801414	-0.0171808
-0.064315	-0.0171808
-0.051614	-0.0171808
-0.0414212	-0.0171808
-0.0332413	-0.0171808
-0.0266768	-0.0171808
-0.0214086	-0.0171808
-0.0171808	-0.0171808
-0.0137879	-0.0171808
-0.0110651	-0.0171808
-0.00887993	-0.0171808
-0.00712631	-0.0171808
-0.00317278	-0.0171808
0.0129	-0.031167
0.03015	-0.0379313
0.05445	-0.0426103
0.08535	-0.0453567
0.12235	-0.046323
0.16485	-0.0458145
0.2122	-0.0441361
0.26375	-0.041644
0.3188	-0.0388468
0.37665	-0.0361004
0.437	-0.0334557
0.49885	-0.030811
0.5608	-0.0281664
0.62195	-0.0256743
0.6813	-0.0235382
0.73795	-0.0217581
0.791	-0.0203341
0.83955	-0.019266
0.8828	-0.0185031
0.92	-0.0179946
0.95055	-0.0176385
0.97395	-0.0173842
0.9898	-0.0172317
0.9979	-0.0171808
1.00317	-0.0171808
1.00713	-0.0171808
1.00888	-0.0171808
1.01107	-0.0171808
1.01379	-0.0171808
1.01718	-0.0171808
1.02141	-0.0171808
1.02668	-0.0171808
1.03324	-0.0171808
1.04142	-0.0171808
1.05161	-0.0171808
1.06432	-0.0171808
1.08014	-0.0171808
1.09986	-0.0171808
1.12444	-0.0171808
1.15506	-0.0171808
1.19321	-0.0171808
1.24076	-0.0171808
1.3	-0.0171808
1.37383	-0.0171808
1.46582	-0.0171808
1.58044	-0.0171808
1.72328	-0.0171808
1.90126	-0.0171808

-0.901259	-0.0137879
-0.723278	-0.0137879
-0.580444	-0.0137879
-0.465817	-0.0137879
-0.373827	-0.0137879
-0.300003	-0.0137879
-0.240758	-0.0137879
-0.193213	-0.0137879
-0.155057	-0.0137879
-0.124436	-0.0137879
-0.0998624	-0.0137879
-0.0801414	-0.0137879
-0.064315	-0.0137879
-0.051614	-0.0137879
-0.0414212	-0.0137879
-0.0332413	-0.0137879
-0.0266768	-0.0137879
-0.0214086	-0.0137879
-0.0171808	-0.0137879
-0.0137879	-0.0137879
-0.0110651	-0.0137879
-0.00887993	-0.0137879
-0.00712631	-0.0137879
-0.00317278	-0.0137879
0.0129	-0.0277275
0.03015	-0.0344692
0.05445	-0.0391326
0.08535	-0.0418698
0.12235	-0.0428329
0.16485	-0.0423261
0.2122	-0.0406533
0.26375	-0.0381695
0.3188	-0.0353816
0.37665	-0.0326444
0.437	-0.0300085
0.49885	-0.0273727
0.5608	-0.0247368
0.62195	-0.0222531
0.6813	-0.0201241
0.73795	-0.01835
0.791	-0.0169307
0.83955	-0.0158662
0.8828	-0.0151058
0.92	-0.014599
0.95055	-0.0142441
0.97395	-0.0139907
0.9898	-0.0138386
0.9979	-0.0137879
1.00317	-0.0137879
1.00713	-0.0137879
1.00888	-0.0137879
1.01107	-0.0137879
1.01379	-0.0137879
1.01718	-0.0137879
1.02141	-0.0137879
1.02668	-0.0137879
1.03324	-0.0137879
1.04142	-0.0137879
1.05161	-0.0137879
1.06432	-0.0137879
1.08014	-0.0137879
1.09986	-0.0137879
1.12444	-0.0137879
1.15506	-0.0137879
1.19321	-0.0137879
1.24076	-0.0137879
1.3	-0.0137879
1.37383	-0.0137879
1.46582	-0.0137879
1.58044	-0.0137879
1.72328	-0.0137879
1.90126	-0.0137879

-0.901259	-0.0110651
-0.723278	-0.0110651
-0.580444	-0.0110651
-0.465817	-0.0110651
-0.373827	-0.0110651
-0.300003	-0.0110651
-0.240758	-0.0110651
-0.193213	-0.0110651
-0.155057	-0.0110651
-0.124436	-0.0110651
-0.0998624	-0.0110651
-0.0801414	-0.0110651
-0.064315	-0.0110651
-0.051614	-0.0110651
-0.0414212	-0.0110651
-0.0332413	-0.0110651
-0.0266768	-0.0110651
-0.0214086	-0.0110651
-0.0171808	-0.0110651
-0.0137879	-0.0110651
-0.0110651	-0.0110651
-0.00887993	-0.0110651
-0.00712631	-0.0110651
-0.00317278	-0.0110651
0.0129	-0.0249672
0.03015	-0.0316908
0.05445	-0.0363417
0.08535	-0.0390716
0.12235	-0.0400321
0.16485	-0.0395265
0.2122	-0.0378583
0.26375	-0.0353812
0.3188	-0.0326008
0.37665	-0.0298709
0.437	-0.0272421
0.49885	-0.0246133
0.5608	-0.0219846
0.62195	-0.0195075
0.6813	-0.0173842
0.73795	-0.0156149
0.791	-0.0141994
0.83955	-0.0131378
0.8828	-0.0123795
0.92	-0.0118739
0.95055	-0.01152
0.97395	-0.0112673
0.9898	-0.0111156
0.9979	-0.0110651
1.00317	-0.0110651
1.00713	-0.0110651
1.00888	-0.0110651
1.01107	-0.0110651
1.01379	-0.0110651
1.01718	-0.0110651
1.02141	-0.0110651
1.02668	-0.0110651
1.03324	-0.0110651
1.04142	-0.0110651
1.05161	-0.0110651
1.06432	-0.0110651
1.08014	-0.0110651
1.09986	-0.0110651
1.12444	-0.0110651
1.15506	-0.0110651
1.19321	-0.0110651
1.24076	-0.0110651
1.3	-0.0110651
1.37383	-0.0110651
1.46582	-0.0110651
1.58044	-0.0110651
1.72328	-0.0110651
1.90126	-0.0110651

-0.901259	-0.00887993
-0.723278	-0.00887993
-0.580444	-0.00887993
-0.465817	-0.00887993
-0.373827	-0.00887993
-0.300003	-0.00887993
-0.240758	-0.00887993
-0.193213	-0.00887993
-0.155057	-0.00887993
-0.124436	-0.00887993
-0.0998624	-0.00887993
-0.0801414	-0.00887993
-0.064315	-0.00887993
-0.051614	-0.00887993
-0.0414212	-0.00887993
-0.0332413	-0.00887993
-0.0266768	-0.00887993
-0.0214086	-0.00887993
-0.0171808	-0.00887993
-0.0137879	-0.00887993
-0.0110651	-0.00887993
-0.00887993	-0.00887993
-0.00712631	-0.00887993
-0.00317278	-0.00887993
0.0129	-0.022752
0.03015	-0.0294611
0.05445	-0.0341019
0.08535	-0.0368259
0.12235	-0.0377843
0.16485	-0.0372799
0.2122	-0.0356152
0.26375	-0.0331435
0.3188	-0.0303691
0.37665	-0.0276451
0.437	-0.025022
0.49885	-0.0223989
0.5608	-0.0197758
0.62195	-0.0173041
0.6813	-0.0151854
0.73795	-0.0134199
0.791	-0.0120075
0.83955	-0.0109481
0.8828	-0.0101915
0.92	-0.00968703
0.95055	-0.00933392
0.97395	-0.0090817
0.9898	-0.00893037
0.9979	-0.00887993
1.00317	-0.00887993
1.00713	-0.00887993
1.00888	-0.00887993
1.01107	-0.00887993
1.01379	-0.00887993
1.01718	-0.00887993
1.02141	-0.00887993
1.02668	-0.00887993
1.03324	-0.00887993
1.04142	-0.00887993
1.05161	-0.00887993
1.06432	-0.00887993
1.08014	-0.00887993
1.09986	-0.00887993
1.12444	-0.00887993
1.15506	-0.00887993
1.19321	-0.00887993
1.24076	-0.00887993
1.3	-0.00887993
1.37383	-0.00887993
1.46582	-0.00887993
1.58044	-0.00887993
1.72328	-0.00887993
1.90126	-0.00887993

-0.901259	-0.00712631
-0.723278	-0.00712631
-0.580444	-0.00712631
-0.465817	-0.00712631
-0.373827	-0.00712631
-0.300003	-0.00712631
-0.240758	-0.00712631
-0.193213	-0.00712631
-0.155057	-0.00712631
-0.124436	-0.00712631
-0.0998624	-0.00712631
-0.0801414	-0.00712631
-0.064315	-0.00712631
-0.051614	-0.00712631
-0.0414212	-0.00712631
-0.0332413	-0.00712631
-0.0266768	-0.00712631
-0.0214086	-0.00712631
-0.0171808	-0.00712631
-0.0137879	-0.00712631
-0.0110651	-0.00712631
-0.00887993	-0.00712631
-0.00712631	-0.00712631
-0.00317278	-0.00712631
0.0129	-0.0209743
0.03015	-0.0276717
0.05445	-0.0323045
0.08535	-0.0350237
0.12235	-0.0359805
0.16485	-0.0354769
0.2122	-0.0338152
0.26375	-0.0313477
0.3188	-0.0285781
0.37665	-0.0258589
0.437	-0.0232403
0.49885	-0.0206218
0.5608	-0.0180033
0.62195	-0.0155358
0.6813	-0.0134208
0.73795	-0.0116584
0.791	-0.0102484
0.83955	-0.00919092
0.8828	-0.00843557
0.92	-0.00793201
0.95055	-0.00757951
0.97395	-0.00732773
0.9898	-0.00717666
0.9979	-0.00712631
1.00317	-0.00712631
1.00713	-0.00712631
1.00888	-0.00712631
1.01107	-0.00712631
1.01379	-0.00712631
1.01718	-0.00712631
1.02141	-0.00712631
1.02668	-0.00712631
1.03324	-0.00712631
1.04142	-0.00712631
1.05161	-0.00712631
1.06432	-0.00712631
1.08014	-0.00712631
1.09986	-0.00712631
1.12444	-0.00712631
1.15506	-0.00712631
1.19321	-0.00712631
1.24076	-0.00712631
1.3	-0.00712631
1.37383	-0.00712631
1.46582	-0.00712631
1.58044	-0.00712631
1.72328	-0.00712631
1.90126	-0.00712631

-0.901259	-0.00317278
-0.723278	-0.00317278
-0.580444	-0.00317278
-0.465817	-0.00317278
-0.373827	-0.00317278
-0.300003	-0.00317278
-0.240758	-0.00317278
-0.193213	-0.00317278
-0.155057	-0.00317278
-0.124436	-0.00317278
-0.0998624	-0.00317278
-0.0801414	-0.00317278
-0.064315	-0.00317278
-0.051614	-0.00317278
-0.0414212	-0.00317278
-0.0332413	-0.00317278
-0.0266768	-0.00317278
-0.0214086	-0.00317278
-0.0171808	-0.00317278
-0.0137879	-0.00317278
-0.0110651	-0.00317278
-0.00887993	-0.00317278
-0.00712631	-0.00317278
-0.00317278	-0.00317278
0.0129	-0.0169664
0.03015	-0.0236375
0.05445	-0.0282521
0.08535	-0.0309607
0.12235	-0.0319137
0.16485	-0.0314121
0.2122	-0.0297569
0.26375	-0.0272991
0.3188	-0.0245404
0.37665	-0.0218318
0.437	-0.0192235
0.49885	-0.0166153
0.5608	-0.014007
0.62195	-0.0115493
0.6813	-0.00944261
0.73795	-0.00768706
0.791	-0.00628262
0.83955	-0.00522928
0.8828	-0.0044769
0.92	-0.00397532
0.95055	-0.00362421
0.97395	-0.00337341
0.9898	-0.00322294
0.9979	-0.00317278
1.00317	-0.00317278
1.00713	-0.00317278
1.00888	-0.00317278
1.01107	-0.00317278
1.01379	-0.00317278
1.01718	-0.00317278
1.02141	-0.00317278
1.02668	-0.00317278
1.03324	-0.00317278
1.04142	-0.00317278
1.05161	-0.00317278
1.06432	-0.00317278
1.08014	-0.00317278
1.09986	-0.00317278
1.12444	-0.00317278
1.15506	-0.00317278
1.19321	-0.00317278
1.24076	-0.00317278
1.3	-0.00317278
1.37383	-0.00317278
1.46582	-0.00317278
1.58044	-0.00317278
1.72328	-0.00317278
1.90126	-0.00317278

-0.901259	0.00317278
-0.723278	0.00317278
-0.580444	0.00317278
-0.465817	0.00317278
-0.373827	0.00317278
-0.300003	0.00317278
-0.240758	0.00317278
-0.193213	0.00317278
-0.155057	0.00317278
-0.124436	0.00317278
-0.0998624	0.00317278
-0.0801414	0.00317278
-0.064315	0.00317278
-0.051614	0.00317278
-0.0414212	0.00317278
-0.0332413	0.00317278
-0.0266768	0.00317278
-0.0214086	0.00317278
-0.0171808	0.00317278
-0.0137879	0.00317278
-0.0110651	0.00317278
-0.00887993	0.00317278
-0.00712631	0.00317278
-0.00317278	0.00317278
0.00675	0.0207668
0.02065	0.0333268
0.0425	0.0462357
0.072	0.0589453
0.10865	0.070957
0.15195	0.0816231
0.2012	0.0903453
0.25545	0.0966752
0.3138	0.100214
0.37515	0.100712
0.4379	0.0983698
0.50115	0.0938342
0.5643	0.087604
0.62625	0.0799285
0.68605	0.0711066
0.7428	0.061537
0.7956	0.0515687
0.84365	0.0416503
0.88625	0.0321306
0.9227	0.0234084
0.95245	0.0159322
0.97515	0.010001
0.9905	0.00586421
0.99815	0.00372103
1.00317	0.00317278
1.00713	0.00317278
1.00888	0.00317278
1.01107	0.00317278
1.01379	0.00317278
1.01718	0.00317278
1.02141	0.00317278
1.02668	0.00317278
1.03324	0.00317278
1.04142	0.00317278
1.05161	0.00317278
1.06432	0.00317278
1.08014	0.00317278
1.09986	0.00317278
1.12444	0.00317278
1.15506	0.00317278
1.19321	0.00317278
1.24076	0.00317278
1.3	0.00317278
1.37383	0.00317278
1.46582	0.00317278
1.58044	0.00317278
1.72328	0.00317278
1.90126	0.00317278

-0.901259	0.00712631
-0.723278	0.00712631
-0.580444	0.00712631
-0.465817	0.00712631
-0.373827	0.00712631
-0.300003	0.00712631
-0.240758	0.00712631
-0.193213	0.00712631
-0.155057	0.00712631
-0.124436	0.00712631
-0.0998624	0.00712631
-0.0801414	0.00712631
-0.064315	0.00712631
-0.051614	0.00712631
-0.0414212	0.00712631
-0.0332413	0.00712631
-0.0266768	0.00712631
-0.0214086	0.00712631
-0.0171808	0.00712631
-0.0137879	0.00712631
-0.0110651	0.00712631
-0.00887993	0.00712631
-0.00712631	0.00712631
-0.00317278	0.00712631
0.00675	0.0246505
0.02065	0.0371607
0.0425	0.0500185
0.072	0.0626776
0.10865	0.0746417
0.15195	0.0852655
0.2012	0.0939531
0.25545	0.100258
0.3138	0.103783
0.37515	0.104279
0.4379	0.101946
0.50115	0.0974282
0.5643	0.0912227
0.62625	0.0835776
0.68605	0.0747906
0.7428	0.0652591
0.7956	0.0553303
0.84365	0.0454512
0.88625	0.0359693
0.9227	0.0272816
0.95245	0.0198351
0.97515	0.0139275
0.9905	0.00980707
0.99815	0.00767239
1.00317	0.00712631
1.00713	0.00712631
1.00888	0.00712631
1.01107	0.00712631
1.01379	0.00712631
1.01718	0.00712631
1.02141	0.00712631
1.02668	0.00712631
1.03324	0.00712631
1.04142	0.00712631
1.05161	0.00712631
1.06432	0.00712631
1.08014	0.00712631
1.09986	0.00712631
1.12444	0.00712631
1.15506	0.00712631
1.19321	0.00712631
1.24076	0.00712631
1.3	0.00712631
1.37383	0.00712631
1.46582	0.00712631
1.58044	0.00712631
1.72328	0.00712631
1.90126	0.00712631

-0.901259	0.00887993
-0.723278	0.00887993
-0.580444	0.00887993
-0.465817	0.00887993
-0.373827	0.00887993
-0.300003	0.00887993
-0.240758	0.00887993
-0.193213	0.00887993
-0.155057	0.00887993
-0.124436	0.00887993
-0.0998624	0.00887993
-0.0801414	0.00887993
-0.064315	0.00887993
-0.051614	0.00887993
-0.0414212	0.00887993
-0.0332413	0.00887993
-0.0266768	0.00887993
-0.0214086	0.00887993
-0.0171808	0.00887993
-0.0137879	0.00887993
-0.0110651	0.00887993
-0.00887993	0.00887993
-0.00712631	0.00887993
-0.00317278	0.00887993
0.00675	0.0263732
0.02065	0.0388613
0.0425	0.0516963
0.072	0.0643331
0.10865	0.0762761
0.15195	0.0868811
0.2012	0.0955534
0.25545	0.101847
0.3138	0.105365
0.37515	0.105861
0.4379	0.103532
0.50115	0.0990223
0.5643	0.0928278
0.62625	0.0851962
0.68605	0.0764248
0.7428	0.06691
0.7956	0.0569988
0.84365	0.0471372
0.88625	0.037672
0.9227	0.0289997
0.95245	0.0215663
0.97515	0.0156691
0.9905	0.0115559
0.99815	0.00942504
1.00317	0.00887993
1.00713	0.00887993
1.00888	0.00887993
1.01107	0.00887993
1.01379	0.00887993
1.01718	0.00887993
1.02141	0.00887993
1.02668	0.00887993
1.03324	0.00887993
1.04142	0.00887993
1.05161	0.00887993
1.06432	0.00887993
1.08014	0.00887993
1.09986	0.00887993
1.12444	0.00887993
1.15506	0.00887993
1.19321	0.00887993
1.24076	0.00887993
1.3	0.00887993
1.37383	0.00887993
1.46582	0.00887993
1.58044	0.00887993
1.72328	0.00887993
1.90126	0.00887993

-0.901259	0.0110651
-0.723278	0.0110651
-0.580444	0.0110651
-0.465817	0.0110651
-0.373827	0.0110651
-0.300003	0.0110651
-0.240758	0.0110651
-0.193213	0.0110651
-0.155057	0.0110651
-0.124436	0.0110651
-0.0998624	0.0110651
-0.0801414	0.0110651
-0.064315	0.0110651
-0.051614	0.0110651
-0.0414212	0.0110651
-0.0332413	0.0110651
-0.0266768	0.0110651
-0.0214086	0.0110651
-0.0171808	0.0110651
-0.0137879	0.0110651
-0.0110651	0.0110651
-0.00887993	0.0110651
-0.00712631	0.0110651
-0.00317278	0.0110651
0.00675	0.0285198
0.02065	0.0409803
0.0425	0.0537871
0.072	0.066396
0.10865	0.0783126
0.15195	0.0888942
0.2012	0.0975474
0.25545	0.103827
0.3138	0.107338
0.37515	0.107832
0.4379	0.105508
0.50115	0.101009
0.5643	0.0948279
0.62625	0.0872131
0.68605	0.078461
0.7428	0.0689672
0.7956	0.0590779
0.84365	0.049238
0.88625	0.0397936
0.9227	0.0311404
0.95245	0.0237234
0.97515	0.0178393
0.9905	0.0137352
0.99815	0.011609
1.00317	0.0110651
1.00713	0.0110651
1.00888	0.0110651
1.01107	0.0110651
1.01379	0.0110651
1.01718	0.0110651
1.02141	0.0110651
1.02668	0.0110651
1.03324	0.0110651
1.04142	0.0110651
1.05161	0.0110651
1.06432	0.0110651
1.08014	0.0110651
1.09986	0.0110651
1.12444	0.0110651
1.15506	0.0110651
1.19321	0.0110651
1.24076	0.0110651
1.3	0.0110651
1.37383	0.0110651
1.46582	0.0110651
1.58044	0.0110651
1.72328	0.0110651
1.90126	0.0110651

-0.901259	0.0137879
-0.723278	0.0137879
-0.580444	0.0137879
-0.465817	0.0137879
-0.373827	0.0137879
-0.300003	0.0137879
-0.240758	0.0137879
-0.193213	0.0137879
-0.155057	0.0137879
-0.124436	0.0137879
-0.0998624	0.0137879
-0.0801414	0.0137879
-0.064315	0.0137879
-0.051614	0.0137879
-0.0414212	0.0137879
-0.0332413	0.0137879
-0.0266768	0.0137879
-0.0214086	0.0137879
-0.0171808	0.0137879
-0.0137879	0.0137879
-0.0110651	0.0137879
-0.00887993	0.0137879
-0.00712631	0.0137879
-0.00317278	0.0137879
0.00675	0.0311946
0.02065	0.0436208
0.0425	0.0563923
0.072	0.0689665
0.10865	0.0808503
0.15195	0.0914028
0.2012	0.100032
0.25545	0.106295
0.3138	0.109796
0.37515	0.110289
0.4379	0.107971
0.50115	0.103484
0.5643	0.0973201
0.62625	0.0897263
0.68605	0.0809983
0.7428	0.0715306
0.7956	0.0616685
0.84365	0.0518557
0.88625	0.0424374
0.9227	0.033808
0.95245	0.0264114
0.97515	0.0205435
0.9905	0.0164507
0.99815	0.0143303
1.00317	0.0137879
1.00713	0.0137879
1.00888	0.0137879
1.01107	0.0137879
1.01379	0.0137879
1.01718	0.0137879
1.02141	0.0137879
1.02668	0.0137879
1.03324	0.0137879
1.04142	0.0137879
1.05161	0.0137879
1.06432	0.0137879
1.08014	0.0137879
1.09986	0.0137879
1.12444	0.0137879
1.15506	0.0137879
1.19321	0.0137879
1.24076	0.0137879
1.3	0.0137879
1.37383	0.0137879
1.46582	0.0137879
1.58044	0.0137879
1.72328	0.0137879
1.90126	0.0137879

-0.901259	0.0171808
-0.723278	0.0171808
-0.580444	0.0171808
-0.465817	0.0171808
-0.373827	0.0171808
-0.300003	0.0171808
-0.240758	0.0171808
-0.193213	0.0171808
-0.155057	0.0171808
-0.124436	0.0171808
-0.0998624	0.0171808
-0.0801414	0.0171808
-0.064315	0.0171808
-0.051614	0.0171808
-0.0414212	0.0171808
-0.0332413	0.0171808
-0.0266768	0.0171808
-0.0214086	0.0171808
-0.0171808	0.0171808
-0.0137879	0.0171808
-0.0110651	0.0171808
-0.00887993	0.0171808
-0.00712631	0.0171808
-0.00317278	0.0171808
0.00675	0.0345276
0.02065	0.0469111
0.0425	0.0596386
0.072	0.0721695
0.10865	0.0840125
0.15195	0.0945287
0.2012	0.103128
0.25545	0.109369
0.3138	0.112858
0.37515	0.11335
0.4379	0.11104
0.50115	0.106568
0.5643	0.100426
0.62625	0.0928579
0.68605	0.0841599
0.7428	0.0747249
0.7956	0.0648967
0.84365	0.0551176
0.88625	0.0457317
0.9227	0.037132
0.95245	0.0297609
0.97515	0.0239131
0.9905	0.0198344
0.99815	0.0177214
1.00317	0.0171808
1.00713	0.0171808
1.00888	0.0171808
1.01107	0.0171808
1.01379	0.0171808
1.01718	0.0171808
1.02141	0.0171808
1.02668	0.0171808
1.03324	0.0171808
1.04142	0.0171808
1.05161	0.0171808
1.06432	0.0171808
1.08014	0.0171808
1.09986	0.0171808
1.12444	0.0171808
1.15506	0.0171808
1.19321	0.0171808
1.24076	0.0171808
1.3	0.0171808
1.37383	0.0171808
1.46582	0.0171808
1.58044	0.0171808
1.72328	0.0171808
1.90126	0.0171808

-0.901259	0.0214086
-0.723278	0.0214086
-0.580444	0.0214086
-0.465817	0.0214086
-0.373827	0.0214086
-0.300003	0.0214086
-0.240758	0.0214086
-0.193213	0.0214086
-0.155057	0.0214086
-0.124436	0.0214086
-0.0998624	0.0214086
-0.0801414	0.0214086
-0.064315	0.0214086
-0.051614	0.0214086
-0.0414212	0.0214086
-0.0332413	0.0214086
-0.0266768	0.0214086
-0.0214086	0.0214086
-0.0171808	0.0214086
-0.0137879	0.0214086
-0.0110651	0.0214086
-0.00887993	0.0214086
-0.00712631	0.0214086
-0.00317278	0.0214086
0.00675	0.0386807
0.02065	0.051011
0.0425	0.0636838
0.072	0.0761608
0.10865	0.0879528
0.15195	0.0984238
0.2012	0.106986
0.25545	0.1132
0.3138	0.116674
0.37515	0.117164
0.4379	0.114864
0.50115	0.110411
0.5643	0.104295
0.62625	0.0967601
0.68605	0.0880996
0.7428	0.0787051
0.7956	0.0689192
0.84365	0.0591822
0.88625	0.0498367
0.9227	0.041274
0.95245	0.0339346
0.97515	0.028112
0.9905	0.0240508
0.99815	0.0219468
1.00317	0.0214086
1.00713	0.0214086
1.00888	0.0214086
1.01107	0.0214086
1.01379	0.0214086
1.01718	0.0214086
1.02141	0.0214086
1.02668	0.0214086
1.03324	0.0214086
1.04142	0.0214086
1.05161	0.0214086
1.06432	0.0214086
1.08014	0.0214086
1.09986	0.0214086
1.12444	0.0214086
1.15506	0.0214086
1.19321	0.0214086
1.24076	0.0214086
1.3	0.0214086
1.37383	0.0214086
1.46582	0.0214086
1.58044	0.0214086
1.72328	0.0214086
1.90126	0.0214086

-0.901259	0.0266768
-0.723278	0.0266768
-0.580444	0.0266768
-0.465817	0.0266768
-0.373827	0.0266768
-0.300003	0.0266768
-0.240758	0.0266768
-0.193213	0.0266768
-0.155057	0.0266768
-0.124436	0.0266768
-0.0998624	0.0266768
-0.0801414	0.0266768
-0.064315	0.0266768
-0.051614	0.0266768
-0.0414212	0.0266768
-0.0332413	0.0266768
-0.0266768	0.0266768
-0.0214086	0.0266768
-0.0171808	0.0266768
-0.0137879	0.0266768
-0.0110651	0.0266768
-0.00887993	0.0266768
-0.00712631	0.0266768
-0.00317278	0.0266768
0.00675	0.0438559
0.02065	0.0561198
0.0425	0.0687243
0.072	0.0811342
0.10865	0.0928627
0.15195	0.103277
0.2012	0.111794
0.25545	0.117974
0.3138	0.12143
0.37515	0.121916
0.4379	0.119629
0.50115	0.115201
0.5643	0.109117
0.62625	0.101623
0.68605	0.0930087
0.7428	0.0836648
0.7956	0.0739316
0.84365	0.064247
0.88625	0.0549518
0.9227	0.0464352
0.95245	0.0391353
0.97515	0.033344
0.9905	0.0293047
0.99815	0.0272121
1.00317	0.0266768
1.00713	0.0266768
1.00888	0.0266768
1.01107	0.0266768
1.01379	0.0266768
1.01718	0.0266768
1.02141	0.0266768
1.02668	0.0266768
1.03324	0.0266768
1.04142	0.0266768
1.05161	0.0266768
1.06432	0.0266768
1.08014	0.0266768
1.09986	0.0266768
1.12444	0.0266768
1.15506	0.0266768
1.19321	0.0266768
1.24076	0.0266768
1.3	0.0266768
1.37383	0.0266768
1.46582	0.0266768
1.58044	0.0266768
1.72328	0.0266768
1.90126	0.0266768

-0.901259	0.0332413
-0.723278	0.0332413
-0.580444	0.0332413
-0.465817	0.0332413
-0.373827	0.0332413
-0.300003	0.0332413
-0.240758	0.0332413
-0.193213	0.0332413
-0.155057	0.0332413
-0.124436	0.0332413
-0.0998624	0.0332413
-0.0801414	0.0332413
-0.064315	0.0332413
-0.051614	0.0332413
-0.0414212	0.0332413
-0.0332413	0.0332413
-0.0266768	0.0332413
-0.0214086	0.0332413
-0.0171808	0.0332413
-0.0137879	0.0332413
-0.0110651	0.0332413
-0.00887993	0.0332413
-0.00712631	0.0332413
-0.00317278	0.0332413
0.00675	0.0503046
0.02065	0.0624858
0.0425	0.0750053
0.072	0.0873315
0.10865	0.0989809
0.15195	0.109325
0.2012	0.117784
0.25545	0.123923
0.3138	0.127355
0.37515	0.127839
0.4379	0.125567
0.50115	0.121168
0.5643	0.115126
0.62625	0.107682
0.68605	0.0991259
0.7428	0.089845
0.7956	0.0801774
0.84365	0.0705582
0.88625	0.0613256
0.9227	0.0528665
0.95245	0.0456158
0.97515	0.0398636
0.9905	0.0358515
0.99815	0.033773
1.00317	0.0332413
1.00713	0.0332413
1.00888	0.0332413
1.01107	0.0332413
1.01379	0.0332413
1.01718	0.0332413
1.02141	0.0332413
1.02668	0.0332413
1.03324	0.0332413
1.04142	0.0332413
1.05161	0.0332413
1.06432	0.0332413
1.08014	0.0332413
1.09986	0.0332413
1.12444	0.0332413
1.15506	0.0332413
1.19321	0.0332413
1.24076	0.0332413
1.3	0.0332413
1.37383	0.0332413
1.46582	0.0332413
1.58044	0.0332413
1.72328	0.0332413
1.90126	0.0332413

-0.901259	0.0414212
-0.723278	0.0414212
-0.580444	0.0414212
-0.465817	0.0414212
-0.373827	0.0414212
-0.300003	0.0414212
-0.240758	0.0414212
-0.193213	0.0414212
-0.155057	0.0414212
-0.124436	0.0414212
-0.0998624	0.0414212
-0.0801414	0.0414212
-0.064315	0.0414212
-0.051614	0.0414212
-0.0414212	0.0414212
-0.0332413	0.0414212
-0.0266768	0.0414212
-0.0214086	0.0414212
-0.0171808	0.0414212
-0.0137879	0.0414212
-0.0110651	0.0414212
-0.00887993	0.0414212
-0.00712631	0.0414212
-0.00317278	0.0414212
0.00675	0.0583401
0.02065	0.0704182
0.0425	0.0828318
0.072	0.0950537
0.10865	0.106605
0.15195	0.116861
0.2012	0.125249
0.25545	0.131336
0.3138	0.134739
0.37515	0.135218
0.4379	0.132965
0.50115	0.128604
0.5643	0.122613
0.62625	0.115232
0.68605	0.106748
0.7428	0.097546
0.7956	0.0879602
0.84365	0.0784224
0.88625	0.0692679
0.9227	0.0608804
0.95245	0.053691
0.97515	0.0479875
0.9905	0.0440094
0.99815	0.0419484
1.00317	0.0414212
1.00713	0.0414212
1.00888	0.0414212
1.01107	0.0414212
1.01379	0.0414212
1.01718	0.0414212
1.02141	0.0414212
1.02668	0.0414212
1.03324	0.0414212
1.04142	0.0414212
1.05161	0.0414212
1.06432	0.0414212
1.08014	0.0414212
1.09986	0.0414212
1.12444	0.0414212
1.15506	0.0414212
1.19321	0.0414212
1.24076	0.0414212
1.3	0.0414212
1.37383	0.0414212
1.46582	0.0414212
1.58044	0.0414212
1.72328	0.0414212
1.90126	0.0414212

-0.901259	0.051614
-0.723278	0.051614
-0.580444	0.051614
-0.465817	0.051614
-0.373827	0.051614
-0.300003	0.051614
-0.240758	0.051614
-0.193213	0.051614
-0.155057	0.051614
-0.124436	0.051614
-0.0998624	0.051614
-0.0801414	0.051614
-0.064315	0.051614
-0.051614	0.051614
-0.0414212	0.051614
-0.0332413	0.051614
-0.0266768	0.051614
-0.0214086	0.051614
-0.0171808	0.051614
-0.0137879	0.051614
-0.0110651	0.051614
-0.00887993	0.051614
-0.00712631	0.051614
-0.00317278	0.051614
0.00675	0.068353
0.02065	0.0803027
0.0425	0.0925843
0.072	0.104676
0.10865	0.116104
0.15195	0.126252
0.2012	0.13455
0.25545	0.140573
0.3138	0.143939
0.37515	0.144414
0.4379	0.142185
0.50115	0.13787
0.5643	0.131942
0.62625	0.12464
0.68605	0.116247
0.7428	0.107142
0.7956	0.0976581
0.84365	0.0882217
0.88625	0.0791646
0.9227	0.0708662
0.95245	0.0637533
0.97515	0.0581105
0.9905	0.0541747
0.99815	0.0521356
1.00317	0.051614
1.00713	0.051614
1.00888	0.051614
1.01107	0.051614
1.01379	0.051614
1.01718	0.051614
1.02141	0.051614
1.02668	0.051614
1.03324	0.051614
1.04142	0.051614
1.05161	0.051614
1.06432	0.051614
1.08014	0.051614
1.09986	0.051614
1.12444	0.051614
1.15506	0.051614
1.19321	0.051614
1.24076	0.051614
1.3	0.051614
1.37383	0.051614
1.46582	0.051614
1.58044	0.051614
1.72328	0.051614
1.90126	0.051614

-0.901259	0.064315
-0.723278	0.064315
-0.580444	0.064315
-0.465817	0.064315
-0.373827	0.064315
-0.300003	0.064315
-0.240758	0.064315
-0.193213	0.064315
-0.155057	0.064315
-0.124436	0.064315
-0.0998624	0.064315
-0.0801414	0.064315
-0.064315	0.064315
-0.051614	0.064315
-0.0414212	0.064315
-0.0332413	0.064315
-0.0266768	0.064315
-0.0214086	0.064315
-0.0171808	0.064315
-0.0137879	0.064315
-0.0110651	0.064315
-0.00887993	0.064315
-0.00712631	0.064315
-0.00317278	0.064315
0.00675	0.0808299
0.02065	0.0926195
0.0425	0.104737
0.072	0.116667
0.10865	0.127942
0.15195	0.137953
0.2012	0.146141
0.25545	0.152082
0.3138	0.155404
0.37515	0.155872
0.4379	0.153673
0.50115	0.149416
0.5643	0.143568
0.62625	0.136363
0.68605	0.128082
0.7428	0.119099
0.7956	0.109743
0.84365	0.100432
0.88625	0.0914967
0.9227	0.0833094
0.95245	0.0762918
0.97515	0.0707245
0.9905	0.0668414
0.99815	0.0648296
1.00317	0.064315
1.00713	0.064315
1.00888	0.064315
1.01107	0.064315
1.01379	0.064315
1.01718	0.064315
1.02141	0.064315
1.02668	0.064315
1.03324	0.064315
1.04142	0.064315
1.05161	0.064315
1.06432	0.064315
1.08014	0.064315
1.09986	0.064315
1.12444	0.064315
1.15506	0.064315
1.19321	0.064315
1.24076	0.064315
1.3	0.064315
1.37383	0.064315
1.46582	0.064315
1.58044	0.064315
1.72328	0.064315
1.90126	0.064315

-0.901259	0.0801414
-0.723278	0.0801414
-0.580444	0.0801414
-0.465817	0.0801414
-0.373827	0.0801414
-0.300003	0.0801414
-0.240758	0.0801414
-0.193213	0.0801414
-0.155057	0.0801414
-0.124436	0.0801414
-0.0998624	0.0801414
-0.0801414	0.0801414
-0.064315	0.0801414
-0.051614	0.0801414
-0.0414212	0.0801414
-0.0332413	0.0801414
-0.0266768	0.0801414
-0.0214086	0.0801414
-0.0171808	0.0801414
-0.0137879	0.0801414
-0.0110651	0.0801414
-0.00887993	0.0801414
-0.00712631	0.0801414
-0.00317278	0.0801414
0.00675	0.0963769
0.02065	0.107967
0.0425	0.119879
0.072	0.131608
0.10865	0.142692
0.15195	0.152534
0.2012	0.160583
0.25545	0.166424
0.3138	0.16969
0.37515	0.17015
0.4379	0.167988
0.50115	0.163803
0.5643	0.158053
0.62625	0.150971
0.68605	0.14283
0.7428	0.133999
0.7956	0.124801
0.84365	0.115648
0.88625	0.106863
0.9227	0.0988146
0.95245	0.0919156
0.97515	0.0864425
0.9905	0.0826251
0.99815	0.0806474
1.00317	0.0801414
1.00713	0.0801414
1.00888	0.0801414
1.01107	0.0801414
1.01379	0.0801414
1.01718	0.0801414
1.02141	0.0801414
1.02668	0.0801414
1.03324	0.0801414
1.04142	0.0801414
1.05161	0.0801414
1.06432	0.0801414
1.08014	0.0801414
1.09986	0.0801414
1.12444	0.0801414
1.15506	0.0801414
1.19321	0.0801414
1.24076	0.0801414
1.3	0.0801414
1.37383	0.0801414
1.46582	0.0801414
1.58044	0.0801414
1.72328	0.0801414
1.90126	0.0801414

-0.901259	0.0998624
-0.723278	0.0998624
-0.580444	0.0998624
-0.465817	0.0998624
-0.373827	0.0998624
-0.300003	0.0998624
-0.240758	0.0998624
-0.193213	0.0998624
-0.155057	0.0998624
-0.124436	0.0998624
-0.0998624	0.0998624
-0.0801414	0.0998624
-0.064315	0.0998624
-0.051614	0.0998624
-0.0414212	0.0998624
-0.0332413	0.0998624
-0.0266768	0.0998624
-0.0214086	0.0998624
-0.0171808	0.0998624
-0.0137879	0.0998624
-0.0110651	0.0998624
-0.00887993	0.0998624
-0.00712631	0.0998624
-0.00317278	0.0998624
0.00675	0.11575
0.02065	0.127092
0.0425	0.138748
0.072	0.150225
0.10865	0.161072
0.15195	0.170703
0.2012	0.178579
0.25545	0.184295
0.3138	0.187491
0.37515	0.187941
0.4379	0.185826
0.50115	0.18173
0.5643	0.176104
0.62625	0.169173
0.68605	0.161207
0.7428	0.152565
0.7956	0.143564
0.84365	0.134608
0.88625	0.126011
0.9227	0.118135
0.95245	0.111384
0.97515	0.106028
0.9905	0.102293
0.99815	0.100357
1.00317	0.0998624
1.00713	0.0998624
1.00888	0.0998624
1.01107	0.0998624
1.01379	0.0998624
1.01718	0.0998624
1.02141	0.0998624
1.02668	0.0998624
1.03324	0.0998624
1.04142	0.0998624
1.05161	0.0998624
1.06432	0.0998624
1.08014	0.0998624
1.09986	0.0998624
1.12444	0.0998624
1.15506	0.0998624
1.19321	0.0998624
1.24076	0.0998624
1.3	0.0998624
1.37383	0.0998624
1.46582	0.0998624
1.58044	0.0998624
1.72328	0.0998624
1.90126	0.0998624

-0.901259	0.124436
-0.723278	0.124436
-0.580444	0.124436
-0.465817	0.124436
-0.373827	0.124436
-0.300003	0.124436
-0.240758	0.124436
-0.193213	0.124436
-0.155057	0.124436
-0.124436	0.124436
-0.0998624	0.124436
-0.0801414	0.124436
-0.064315	0.124436
-0.051614	0.124436
-0.0414212	0.124436
-0.0332413	0.124436
-0.0266768	0.124436
-0.0214086	0.124436
-0.0171808	0.124436
-0.0137879	0.124436
-0.0110651	0.124436
-0.00887993	0.124436
-0.00712631	0.124436
-0.00317278	0.124436
0.00675	0.13989
0.02065	0.150922
0.0425	0.162261
0.072	0.173424
0.10865	0.183975
0.15195	0.193343
0.2012	0.201004
0.25545	0.206564
0.3138	0.209672
0.37515	0.21011
0.4379	0.208053
0.50115	0.204069
0.5643	0.198596
0.62625	0.191855
0.68605	0.184106
0.7428	0.1757
0.7956	0.166945
0.84365	0.158233
0.88625	0.149871
0.9227	0.14221
0.95245	0.135643
0.97515	0.130434
0.9905	0.1268
0.99815	0.124918
1.00317	0.124436
1.00713	0.124436
1.00888	0.124436
1.01107	0.124436
1.01379	0.124436
1.01718	0.124436
1.02141	0.124436
1.02668	0.124436
1.03324	0.124436
1.04142	0.124436
1.05161	0.124436
1.06432	0.124436
1.08014	0.124436
1.09986	0.124436
1.12444	0.124436
1.15506	0.124436
1.19321	0.124436
1.24076	0.124436
1.3	0.124436
1.37383	0.124436
1.46582	0.124436
1.58044	0.124436
1.72328	0.124436
1.90126	0.124436

-0.901259	0.155057
-0.723278	0.155057
-0.580444	0.155057
-0.465817	0.155057
-0.373827	0.155057
-0.300003	0.155057
-0.240758	0.155057
-0.193213	0.155057
-0.155057	0.155057
-0.124436	0.155057
-0.0998624	0.155057
-0.0801414	0.155057
-0.064315	0.155057
-0.051614	0.155057
-0.0414212	0.155057
-0.0332413	0.155057
-0.0266768	0.155057
-0.0214086	0.155057
-0.0171808	0.155057
-0.0137879	0.155057
-0.0110651	0.155057
-0.00887993	0.155057
-0.00712631	0.155057
-0.00317278	0.155057
0.00675	0.16997
0.02065	0.180617
0.0425	0.191559
0.072	0.202332
0.10865	0.212513
0.15195	0.221554
0.2012	0.228947
0.25545	0.234313
0.3138	0.237312
0.37515	0.237735
0.4379	0.235749
0.50115	0.231905
0.5643	0.226624
0.62625	0.220118
0.68605	0.21264
0.7428	0.204528
0.7956	0.196079
0.84365	0.187672
0.88625	0.179603
0.9227	0.172209
0.95245	0.165872
0.97515	0.160845
0.9905	0.157338
0.99815	0.155522
1.00317	0.155057
1.00713	0.155057
1.00888	0.155057
1.01107	0.155057
1.01379	0.155057
1.01718	0.155057
1.02141	0.155057
1.02668	0.155057
1.03324	0.155057
1.04142	0.155057
1.05161	0.155057
1.06432	0.155057
1.08014	0.155057
1.09986	0.155057
1.12444	0.155057
1.15506	0.155057
1.19321	0.155057
1.24076	0.155057
1.3	0.155057
1.37383	0.155057
1.46582	0.155057
1.58044	0.155057
1.72328	0.155057
1.90126	0.155057

-0.901259	0.193213
-0.723278	0.193213
-0.580444	0.193213
-0.465817	0.193213
-0.373827	0.193213
-0.300003	0.193213
-0.240758	0.193213
-0.193213	0.193213
-0.155057	0.193213
-0.124436	0.193213
-0.0998624	0.193213
-0.0801414	0.193213
-0.064315	0.193213
-0.051614	0.193213
-0.0414212	0.193213
-0.0332413	0.193213
-0.0266768	0.193213
-0.0214086	0.193213
-0.0171808	0.193213
-0.0137879	0.193213
-0.0110651	0.193213
-0.00887993	0.193213
-0.00712631	0.193213
-0.00317278	0.193213
0.00675	0.207453
0.02065	0.217618
0.0425	0.228066
0.072	0.238353
0.10865	0.248074
0.15195	0.256707
0.2012	0.263767
0.25545	0.26889
0.3138	0.271754
0.37515	0.272157
0.4379	0.270261
0.50115	0.26659
0.5643	0.261548
0.62625	0.255336
0.68605	0.248196
0.7428	0.24045
0.7956	0.232382
0.84365	0.224355
0.88625	0.21665
0.9227	0.209591
0.95245	0.20354
0.97515	0.198739
0.9905	0.195391
0.99815	0.193657
1.00317	0.193213
1.00713	0.193213
1.00888	0.193213
1.01107	0.193213
1.01379	0.193213
1.01718	0.193213
1.02141	0.193213
1.02668	0.193213
1.03324	0.193213
1.04142	0.193213
1.05161	0.193213
1.06432	0.193213
1.08014	0.193213
1.09986	0.193213
1.12444	0.193213
1.15506	0.193213
1.19321	0.193213
1.24076	0.193213
1.3	0.193213
1.37383	0.193213
1.46582	0.193213
1.58044	0.193213
1.72328	0.193213
1.90126	0.193213

-0.901259	0.240758
-0.723278	0.240758
-0.580444	0.240758
-0.465817	0.240758
-0.373827	0.240758
-0.300003	0.240758
-0.240758	0.240758
-0.193213	0.240758
-0.155057	0.240758
-0.124436	0.240758
-0.0998624	0.240758
-0.0801414	0.240758
-0.064315	0.240758
-0.051614	0.240758
-0.0414212	0.240758
-0.0332413	0.240758
-0.0266768	0.240758
-0.0214086	0.240758
-0.0171808	0.240758
-0.0137879	0.240758
-0.0110651	0.240758
-0.00887993	0.240758
-0.00712631	0.240758
-0.00317278	0.240758
0.00675	0.254159
0.02065	0.263725
0.0425	0.273557
0.072	0.283238
0.10865	0.292387
0.15195	0.300511
0.2012	0.307154
0.25545	0.311975
0.3138	0.31467
0.37515	0.31505
0.4379	0.313266
0.50115	0.309811
0.5643	0.305066
0.62625	0.29922
0.68605	0.292501
0.7428	0.285212
0.7956	0.277619
0.84365	0.270065
0.88625	0.262814
0.9227	0.256171
0.95245	0.250476
0.97515	0.245959
0.9905	0.242808
0.99815	0.241176
1.00317	0.240758
1.00713	0.240758
1.00888	0.240758
1.01107	0.240758
1.01379	0.240758
1.01718	0.240758
1.02141	0.240758
1.02668	0.240758
1.03324	0.240758
1.04142	0.240758
1.05161	0.240758
1.06432	0.240758
1.08014	0.240758
1.09986	0.240758
1.12444	0.240758
1.15506	0.240758
1.19321	0.240758
1.24076	0.240758
1.3	0.240758
1.37383	0.240758
1.46582	0.240758
1.58044	0.240758
1.72328	0.240758
1.90126	0.240758

-0.901259	0.300003
-0.723278	0.300003
-0.580444	0.300003
-0.465817	0.300003
-0.373827	0.300003
-0.300003	0.300003
-0.240758	0.300003
-0.193213	0.300003
-0.155057	0.300003
-0.124436	0.300003
-0.0998624	0.300003
-0.0801414	0.300003
-0.064315	0.300003
-0.051614	0.300003
-0.0414212	0.300003
-0.0332413	0.300003
-0.0266768	0.300003
-0.0214086	0.300003
-0.0171808	0.300003
-0.0137879	0.300003
-0.0110651	0.300003
-0.00887993	0.300003
-0.00712631	0.300003
-0.00317278	0.300003
0.00675	0.312358
0.02065	0.321178
0.0425	0.330243
0.072	0.339168
0.10865	0.347603
0.15195	0.355093
0.2012	0.361218
0.25545	0.365663
0.3138	0.368148
0.37515	0.368498
0.4379	0.366853
0.50115	0.363668
0.5643	0.359293
0.62625	0.353903
0.68605	0.347708
0.7428	0.340988
0.7956	0.333988
0.84365	0.327023
0.88625	0.320338
0.9227	0.314213
0.95245	0.308963
0.97515	0.304798
0.9905	0.301893
0.99815	0.300388
1.00317	0.300003
1.00713	0.300003
1.00888	0.300003
1.01107	0.300003
1.01379	0.300003
1.01718	0.300003
1.02141	0.300003
1.02668	0.300003
1.03324	0.300003
1.04142	0.300003
1.05161	0.300003
1.06432	0.300003
1.08014	0.300003
1.09986	0.300003
1.12444	0.300003
1.15506	0.300003
1.19321	0.300003
1.24076	0.300003
1.3	0.300003
1.37383	0.300003
1.46582	0.300003
1.58044	0.300003
1.72328	0.300003
1.90126	0.300003

-0.901259	0.373827
-0.723278	0.373827
-0.580444	0.373827
-0.465817	0.373827
-0.373827	0.373827
-0.300003	0.373827
-0.240758	0.373827
-0.193213	0.373827
-0.155057	0.373827
-0.124436	0.373827
-0.0998624	0.373827
-0.0801414	0.373827
-0.064315	0.373827
-0.051614	0.373827
-0.0414212	0.373827
-0.0332413	0.373827
-0.0266768	0.373827
-0.0214086	0.373827
-0.0171808	0.373827
-0.0137879	0.373827
-0.0110651	0.373827
-0.00887993	0.373827
-0.00712631	0.373827
-0.00317278	0.373827
0.00675	0.384879
0.02065	0.392769
0.0425	0.400878
0.072	0.408861
0.10865	0.416407
0.15195	0.423107
0.2012	0.428586
0.25545	0.432562
0.3138	0.434785
0.37515	0.435098
0.4379	0.433627
0.50115	0.430777
0.5643	0.426864
0.62625	0.422042
0.68605	0.416501
0.7428	0.410489
0.7956	0.404228
0.84365	0.397997
0.88625	0.392017
0.9227	0.386538
0.95245	0.381842
0.97515	0.378116
0.9905	0.375518
0.99815	0.374171
1.00317	0.373827
1.00713	0.373827
1.00888	0.373827
1.01107	0.373827
1.01379	0.373827
1.01718	0.373827
1.02141	0.373827
1.02668	0.373827
1.03324	0.373827
1.04142	0.373827
1.05161	0.373827
1.06432	0.373827
1.08014	0.373827
1.09986	0.373827
1.12444	0.373827
1.15506	0.373827
1.19321	0.373827
1.24076	0.373827
1.3	0.373827
1.37383	0.373827
1.46582	0.373827
1.58044	0.373827
1.72328	0.373827
1.90126	0.373827

-0.901259	0.465817
-0.723278	0.465817
-0.580444	0.465817
-0.465817	0.465817
-0.373827	0.465817
-0.300003	0.465817
-0.240758	0.465817
-0.193213	0.465817
-0.155057	0.465817
-0.124436	0.465817
-0.0998624	0.465817
-0.0801414	0.465817
-0.064315	0.465817
-0.051614	0.465817
-0.0414212	0.465817
-0.0332413	0.465817
-0.0266768	0.465817
-0.0214086	0.465817
-0.0171808	0.465817
-0.0137879	0.465817
-0.0110651	0.465817
-0.00887993	0.465817
-0.00712631	0.465817
-0.00317278	0.465817
0.00675	0.475245
0.02065	0.481976
0.0425	0.488894
0.072	0.495705
0.10865	0.502142
0.15195	0.507857
0.2012	0.512531
0.25545	0.515923
0.3138	0.51782
0.37515	0.518087
0.4379	0.516832
0.50115	0.514401
0.5643	0.511062
0.62625	0.506949
0.68605	0.502222
0.7428	0.497094
0.7956	0.491752
0.84365	0.486437
0.88625	0.481335
0.9227	0.476661
0.95245	0.472655
0.97515	0.469476
0.9905	0.467259
0.99815	0.466111
1.00317	0.465817
1.00713	0.465817
1.00888	0.465817
1.01107	0.465817
1.01379	0.465817
1.01718	0.465817
1.02141	0.465817
1.02668	0.465817
1.03324	0.465817
1.04142	0.465817
1.05161	0.465817
1.06432	0.465817
1.08014	0.465817
1.09986	0.465817
1.12444	0.465817
1.15506	0.465817
1.19321	0.465817
1.24076	0.465817
1.3	0.465817
1.37383	0.465817
1.46582	0.465817
1.58044	0.465817
1.72328	0.465817
1.90126	0.465817

-0.901259	0.580444
-0.723278	0.580444
-0.580444	0.580444
-0.465817	0.580444
-0.373827	0.580444
-0.300003	0.580444
-0.240758	0.580444
-0.193213	0.580444
-0.155057	0.580444
-0.124436	0.580444
-0.0998624	0.580444
-0.0801414	0.580444
-0.064315	0.580444
-0.051614	0.580444
-0.0414212	0.580444
-0.0332413	0.580444
-0.0266768	0.580444
-0.0214086	0.580444
-0.0171808	0.580444
-0.0137879	0.580444
-0.0110651	0.580444
-0.00887993	0.580444
-0.00712631	0.580444
-0.00317278	0.580444
0.00675	0.587849
0.02065	0.593135
0.0425	0.598569
0.072	0.603918
0.10865	0.608974
0.15195	0.613463
0.2012	0.617134
0.25545	0.619798
0.3138	0.621288
0.37515	0.621497
0.4379	0.620511
0.50115	0.618603
0.5643	0.61598
0.62625	0.61275
0.68605	0.609037
0.7428	0.605009
0.7956	0.600813
0.84365	0.596639
0.88625	0.592632
0.9227	0.588961
0.95245	0.585814
0.97515	0.583318
0.9905	0.581577
0.99815	0.580675
1.00317	0.580444
1.00713	0.580444
1.00888	0.580444
1.01107	0.580444
1.01379	0.580444
1.01718	0.580444
1.02141	0.580444
1.02668	0.580444
1.03324	0.580444
1.04142	0.580444
1.05161	0.580444
1.06432	0.580444
1.08014	0.580444
1.09986	0.580444
1.12444	0.580444
1.15506	0.580444
1.19321	0.580444
1.24076	0.580444
1.3	0.580444
1.37383	0.580444
1.46582	0.580444
1.58044	0.580444
1.72328	0.580444
1.90126	0.580444

-0.901259	0.723278
-0.723278	0.723278
-0.580444	0.723278
-0.465817	0.723278
-0.373827	0.723278
-0.300003	0.723278
-0.240758	0.723278
-0.193213	0.723278
-0.155057	0.723278
-0.124436	0.723278
-0.0998624	0.723278
-0.0801414	0.723278
-0.064315	0.723278
-0.051614	0.723278
-0.0414212	0.723278
-0.0332413	0.723278
-0.0266768	0.723278
-0.0214086	0.723278
-0.0171808	0.723278
-0.0137879	0.723278
-0.0110651	0.723278
-0.00887993	0.723278
-0.00712631	0.723278
-0.00317278	0.723278
0.00675	0.728162
0.02065	0.731648
0.0425	0.735232
0.072	0.73876
0.10865	0.742095
0.15195	0.745056
0.2012	0.747477
0.25545	0.749234
0.3138	0.750217
0.37515	0.750355
0.4379	0.749705
0.50115	0.748446
0.5643	0.746716
0.62625	0.744585
0.68605	0.742136
0.7428	0.73948
0.7956	0.736712
0.84365	0.733959
0.88625	0.731316
0.9227	0.728895
0.95245	0.72682
0.97515	0.725173
0.9905	0.724025
0.99815	0.72343
1.00317	0.723278
1.00713	0.723278
1.00888	0.723278
1.01107	0.723278
1.01379	0.723278
1.01718	0.723278
1.02141	0.723278
1.02668	0.723278
1.03324	0.723278
1.04142	0.723278
1.05161	0.723278
1.06432	0.723278
1.08014	0.723278
1.09986	0.723278
1.12444	0.723278
1.15506	0.723278
1.19321	0.723278
1.24076	0.723278
1.3	0.723278
1.37383	0.723278
1.46582	0.723278
1.58044	0.723278
1.72328	0.723278
1.90126	0.723278

-0.901259	0.901259
-0.723278	0.901259
-0.580444	0.901259
-0.465817	0.901259
-0.373827	0.901259
-0.300003	0.901259
-0.240758	0.901259
-0.193213	0.901259
-0.155057	0.901259
-0.124436	0.901259
-0.0998624	0.901259
-0.0801414	0.901259
-0.064315	0.901259
-0.051614	0.901259
-0.0414212	0.901259
-0.0332413	0.901259
-0.0266768	0.901259
-0.0214086	0.901259
-0.0171808	0.901259
-0.0137879	0.901259
-0.0110651	0.901259
-0.00887993	0.901259
-0.00712631	0.901259
-0.00317278	0.901259
0.00675	0.903002
0.02065	0.904246
0.0425	0.905525
0.072	0.906784
0.10865	0.907974
0.15195	0.90903
0.2012	0.909894
0.25545	0.910521
0.3138	0.910872
0.37515	0.910921
0.4379	0.910689
0.50115	0.91024
0.5643	0.909623
0.62625	0.908862
0.68605	0.907989
0.7428	0.907041
0.7956	0.906053
0.84365	0.905071
0.88625	0.904128
0.9227	0.903264
0.95245	0.902523
0.97515	0.901936
0.9905	0.901526
0.99815	0.901314
1.00317	0.901259
1.00713	0.901259
1.00888	0.901259
1.01107	0.901259
1.01379	0.901259
1.01718	0.901259
1.02141	0.901259
1.02668	0.901259
1.03324	0.901259
1.04142	0.901259
1.05161	0.901259
1.06432	0.901259
1.08014	0.901259
1.09986	0.901259
1.12444	0.901259
1.15506	0.901259
1.19321	0.901259
1.24076	0.901259
1.3	0.901259
1.37383	0.901259
1.46582	0.901259
1.58044	0.901259
1.72328	0.901259
1.90126	0.901259

